[
  {
    "_id": "5642259af70ae9e0d5d684c8",
    "index": 0,
    "guid": "181c093e-16b1-4818-9ae2-e2b610075da6",
    "isActive": true,
    "balance": "$1,792.38",
    "picture": "http://placehold.it/32x32",
    "age": 26,
    "eyeColor": "brown",
    "name": {
      "first": "Wagner",
      "last": "Booker"
    },
    "company": "GOKO",
    "email": "wagner.booker@goko.io",
    "phone": "+1 (994) 495-2294",
    "address": "784 Aviation Road, Townsend, Vermont, 8732",
    "about": "Aute consectetur officia eiusmod cupidatat veniam officia irure. Aute nulla adipisicing minim velit labore elit labore laborum Lorem cillum deserunt. Commodo cupidatat duis incididunt irure non id do quis nisi ut proident ad excepteur Lorem. Commodo Lorem aliquip elit sint consequat nisi reprehenderit commodo nisi ut.",
    "registered": "Thursday, April 16, 2015 4:15 PM",
    "latitude": "-29.989223",
    "longitude": "92.390173",
    "tags": [
      7,
      "fugiat"
    ],
    "range": [
      0,
      1,
      2,
      3,
      4,
      5,
      6,
      7,
      8,
      9
    ],
    "friends": [
      3,
      {
        "id": 1,
        "name": "Queen Rodgers"
      }
    ],
    "greeting": "Hello, Wagner! You have 5 unread messages.",
    "favoriteFruit": "strawberry"
  },
  {
    "_id": "5642259a03d056505bac92fa",
    "index": 1,
    "guid": "152e9920-0f29-4ce1-b761-ff8da4bbc030",
    "isActive": true,
    "balance": "$3,023.15",
    "picture": "http://placehold.it/32x32",
    "age": 28,
    "eyeColor": "green",
    "name": {
      "first": "Maureen",
      "last": "Fitzpatrick"
    },
    "company": "ECSTASIA",
    "email": "maureen.fitzpatrick@ecstasia.org",
    "phone": "+1 (970) 497-3891",
    "address": "443 Elm Avenue, Bonanza, Illinois, 670",
    "about": "Culpa in officia est ipsum nisi tempor laborum labore aliquip irure. Pariatur amet velit consectetur minim quis ut laboris. Irure ullamco ad commodo reprehenderit ad aliquip. Reprehenderit consequat tempor ipsum enim sit ad Lorem nostrud Lorem. Enim sunt est enim labore eiusmod fugiat. Commodo sunt occaecat enim occaecat pariatur excepteur. Ipsum ullamco officia ut id laborum non aute ullamco officia.",
    "registered": "Sunday, February 15, 2015 6:19 AM",
    "latitude": "76.68747",
    "longitude": "98.766031",
    "tags": [
      7,
      "fugiat"
    ],
    "range": [
      0,
      1,
      2,
      3,
      4,
      5,
      6,
      7,
      8,
      9
    ],
    "friends": [
      3,
      {
        "id": 1,
        "name": "Queen Rodgers"
      }
    ],
    "greeting": "Hello, Maureen! You have 6 unread messages.",
    "favoriteFruit": "apple"
  },
  {
    "_id": "5642259a7122f019524f2b4b",
    "index": 2,
    "guid": "013891cc-25db-4d07-8883-969596941f23",
    "isActive": false,
    "balance": "$1,187.83",
    "picture": "http://placehold.it/32x32",
    "age": 40,
    "eyeColor": "green",
    "name": {
      "first": "Berry",
      "last": "Mccormick"
    },
    "company": "ZOLAREX",
    "email": "berry.mccormick@zolarex.name",
    "phone": "+1 (977) 573-2074",
    "address": "488 Ellery Street, Gadsden, Marshall Islands, 5683",
    "about": "Fugiat excepteur nulla dolor in culpa enim. Ex eiusmod quis fugiat sint dolor Lorem qui est. Labore officia Lorem elit do veniam. Id nisi non ea officia occaecat sunt aute incididunt labore exercitation labore. Ea est sit anim nulla deserunt laborum dolor minim aliqua in qui.",
    "registered": "Thursday, November 20, 2014 5:14 PM",
    "latitude": "58.765546",
    "longitude": "-115.23467",
    "tags": [
      7,
      "fugiat"
    ],
    "range": [
      0,
      1,
      2,
      3,
      4,
      5,
      6,
      7,
      8,
      9
    ],
    "friends": [
      3,
      {
        "id": 1,
        "name": "Queen Rodgers"
      }
    ],
    "greeting": "Hello, Berry! You have 6 unread messages.",
    "favoriteFruit": "apple"
  },
  {
    "_id": "5642259b873c65e5689d1950",
    "index": 3,
    "guid": "e5207a2e-6193-433f-a6ba-b53243397825",
    "isActive": true,
    "balance": "$1,609.03",
    "picture": "http://placehold.it/32x32",
    "age": 20,
    "eyeColor": "blue",
    "name": {
      "first": "Ollie",
      "last": "Ochoa"
    },
    "company": "HELIXO",
    "email": "ollie.ochoa@helixo.com",
    "phone": "+1 (969) 499-2995",
    "address": "902 Poly Place, Osmond, Montana, 9357",
    "about": "Do eiusmod laborum magna ex ex cillum occaecat. Ipsum reprehenderit ullamco labore aute exercitation Lorem dolor dolor laboris aliquip consequat. Anim adipisicing nostrud eiusmod ut fugiat occaecat.",
    "registered": "Friday, July 4, 2014 2:29 PM",
    "latitude": "55.676498",
    "longitude": "-19.459574",
    "tags": [
      7,
      "fugiat"
    ],
    "range": [
      0,
      1,
      2,
      3,
      4,
      5,
      6,
      7,
      8,
      9
    ],
    "friends": [
      3,
      {
        "id": 1,
        "name": "Queen Rodgers"
      }
    ],
    "greeting": "Hello, Ollie! You have 9 unread messages.",
    "favoriteFruit": "strawberry"
  },
  {
    "_id": "5642259b1c7bd3b9e085148f",
    "index": 4,
    "guid": "d5950005-f292-4d3b-917f-b59c4d2df670",
    "isActive": false,
    "balance": "$2,220.84",
    "picture": "http://placehold.it/32x32",
    "age": 31,
    "eyeColor": "green",
    "name": {
      "first": "Sherry",
      "last": "Suarez"
    },
    "company": "EMERGENT",
    "email": "sherry.suarez@emergent.us",
    "phone": "+1 (979) 523-2199",
    "address": "716 Dooley Street, Catharine, Delaware, 6366",
    "about": "Occaecat ullamco labore consectetur ipsum. Dolor commodo cillum magna id amet do id consectetur qui qui magna nisi. Aliquip quis in qui adipisicing do et incididunt.",
    "registered": "Wednesday, August 12, 2015 11:34 PM",
    "latitude": "-45.08125",
    "longitude": "125.432113",
    "tags": [
      7,
      "fugiat"
    ],
    "range": [
      0,
      1,
      2,
      3,
      4,
      5,
      6,
      7,
      8,
      9
    ],
    "friends": [
      3,
      {
        "id": 1,
        "name": "Queen Rodgers"
      }
    ],
    "greeting": "Hello, Sherry! You have 7 unread messages.",
    "favoriteFruit": "strawberry"
  }
]
